Vending_machine/vending_machine.vcd
$date
	Fri Jun 13 08:06:48 2025
$end
$version
	Icarus Verilog
$end
$timescale
	1s
$end
$scope module Vending_machine_tb $end
$var wire 3 ! state_out [2:0] $end
$var wire 2 " product_out [1:0] $end
$var wire 5 # current_amount_display [4:0] $end
$var wire 5 $ change_out [4:0] $end
$var parameter 3 % DISPENSE_PRODUCT $end
$var parameter 3 & IDLE $end
$var parameter 3 ' MONEY_DEPOSIT $end
$var parameter 3 ( PRODUCT_SELECT $end
$var parameter 3 ) RETURN_CHANGE $end
$var reg 1 * cancel $end
$var reg 1 + clk $end
$var reg 2 , coin_in [1:0] $end
$var reg 3 - prev_state [2:0] $end
$var reg 2 . product_sel [1:0] $end
$var reg 1 / reset $end
$var reg 5 0 saved_change [4:0] $end
$var reg 2 1 saved_product [1:0] $end
$var integer 32 2 emergency_count [31:0] $end
$scope module uut $end
$var wire 1 * cancel $end
$var wire 1 + clk $end
$var wire 2 3 coin_in [1:0] $end
$var wire 5 4 current_amount_display [4:0] $end
$var wire 2 5 product_sel [1:0] $end
$var wire 1 / reset $end
$var wire 1 6 valid_transaction $end
$var wire 3 7 state_out [2:0] $end
$var wire 5 8 selected_price [4:0] $end
$var wire 1 9 reset_money $end
$var wire 2 : product_out [1:0] $end
$var wire 1 ; dispense_command $end
$var wire 5 < current_amount [4:0] $end
$var wire 5 = change_out [4:0] $end
$var wire 1 > calculate_change $end
$scope module change_calculator_inst $end
$var wire 1 + clk $end
$var wire 1 / reset $end
$var wire 5 ? product_price [4:0] $end
$var wire 5 @ current_amount [4:0] $end
$var wire 1 > calculate $end
$var reg 5 A change_amount [4:0] $end
$var reg 1 6 valid_transaction $end
$upscope $end
$scope module fsm_controller_inst $end
$var wire 1 * cancel $end
$var wire 1 + clk $end
$var wire 2 B coin_in [1:0] $end
$var wire 2 C product_sel [1:0] $end
$var wire 1 / reset $end
$var wire 1 D timeout $end
$var wire 1 6 valid_transaction $end
$var wire 5 E selected_price [4:0] $end
$var wire 5 F current_amount [4:0] $end
$var parameter 3 G DISPENSE_PRODUCT $end
$var parameter 3 H IDLE $end
$var parameter 3 I MONEY_DEPOSIT $end
$var parameter 3 J PRODUCT_SELECT $end
$var parameter 3 K RETURN_CHANGE $end
$var reg 1 > calculate_change $end
$var reg 3 L current_state [2:0] $end
$var reg 1 ; dispense_command $end
$var reg 1 M money_reset_done $end
$var reg 3 N next_state [2:0] $end
$var reg 2 O product_out [1:0] $end
$var reg 1 9 reset_money $end
$var reg 2 P selected_product [1:0] $end
$var reg 1 Q transaction_cancelled $end
$upscope $end
$scope module money_counter_inst $end
$var wire 1 + clk $end
$var wire 2 R coin_in [1:0] $end
$var wire 1 S coin_inserted $end
$var wire 1 T reset $end
$var parameter 5 U COIN_1 $end
$var parameter 5 V COIN_10 $end
$var parameter 5 W COIN_5 $end
$var reg 2 X coin_in_prev [1:0] $end
$var reg 5 Y total_amount [4:0] $end
$upscope $end
$scope module product_selection_inst $end
$var wire 1 + clk $end
$var wire 2 Z product_sel [1:0] $end
$var wire 1 / reset $end
$var parameter 5 [ PRODUCT_A_PRICE $end
$var parameter 5 \ PRODUCT_B_PRICE $end
$var parameter 5 ] PRODUCT_C_PRICE $end
$var reg 5 ^ selected_price [4:0] $end
$upscope $end
$upscope $end
$scope begin background_monitor $end
$var integer 32 _ monitor_active [31:0] $end
$upscope $end
$scope begin summary_block $end
$var integer 32 ` total_passed [31:0] $end
$upscope $end
$scope task insert_coin $end
$var reg 2 a coin_type [1:0] $end
$upscope $end
$scope task select_product $end
$var reg 2 b product [1:0] $end
$upscope $end
$scope task wait_for_state_with_timeout $end
$var reg 3 c expected_state [2:0] $end
$var integer 32 d max_cycles [31:0] $end
$var integer 32 e timeout_count [31:0] $end
$upscope $end
$upscope $end
$enddefinitions $end
$comment Show the parameter values. $end
$dumpall
b11001 ]
b10100 \
b1111 [
b101 W
b1010 V
b1 U
b100 K
b10 J
b1 I
b0 H
b11 G
b100 )
b10 (
b1 '
b0 &
b11 %
$end
#0
$dumpvars
bx e
bx d
bx c
bx b
bx a
bx `
bx _
b0 ^
b0 Z
bx Y
bx X
1T
0S
b0 R
0Q
b0 P
b0 O
b0 N
0M
b0 L
bx F
b0 E
0D
b0 C
b0 B
b0 A
bx @
b0 ?
0>
b0 =
bx <
0;
b0 :
19
b0 8
b0 7
06
b0 5
bx 4
b0 3
b0 2
bx 1
bx 0
1/
b0 .
b0 -
b0 ,
0+
0*
b0 $
bx #
b0 "
b0 !
$end
#10
19
b0 X
b0 #
b0 4
b0 <
b0 @
b0 F
b0 Y
b1 2
1+
#20
0+
#30
b10 2
1+
#40
0+
#50
b11 2
1+
#60
0+
#70
b100 2
1+
#80
0+
#90
b101 2
1+
#100
0+
#110
b110 2
1+
#120
0+
#130
b111 2
1+
#140
0+
#150
b1000 2
1+
#160
0+
#170
b1001 2
1+
#180
0+
#190
0T
09
1M
b1010 2
0/
1+
#200
0+
#210
b1011 2
1+
#220
0+
#230
b1100 2
1+
#240
0+
#250
b1101 2
1+
#260
0+
#270
b1110 2
1+
#280
0+
#290
b11 a
b1111 2
1+
#300
0+
#310
b10000 2
1+
#320
0+
#330
b1 N
1S
b11 ,
b11 3
b11 B
b11 R
b10001 2
1+
#340
0+
#350
0S
b1 !
b1 7
b1 L
b1010 #
b1010 4
b1010 <
b1010 @
b1010 F
b1010 Y
b11 X
b10010 2
1+
#360
0+
#370
0M
b1 -
b0 ,
b0 3
b0 B
b0 R
b10011 2
1+
#380
0+
#390
b0 X
b10100 2
1+
#400
0+
#410
b10101 2
1+
#420
0+
#430
b10110 2
1+
#440
0+
#450
b10111 2
1+
#460
0+
#470
b11000 2
1+
#480
0+
#490
b11001 2
b10 a
1+
#500
0+
#510
b11010 2
1+
#520
0+
#530
1S
b10 ,
b10 3
b10 B
b10 R
b11011 2
1+
#540
0+
#550
0S
b1111 #
b1111 4
b1111 <
b1111 @
b1111 F
b1111 Y
b10 X
b11100 2
1+
#560
0+
#570
b0 ,
b0 3
b0 B
b0 R
b11101 2
1+
#580
0+
#590
b0 X
b11110 2
1+
#600
0+
#610
b11111 2
1+
#620
0+
#630
b100000 2
1+
#640
0+
#650
b100001 2
1+
#660
0+
#670
b100010 2
1+
#680
0+
#690
b100011 2
b1 b
1+
#700
0+
#710
b1111 8
b1111 ?
b1111 E
b1111 ^
b10 N
b100100 2
b1 .
b1 5
b1 C
b1 Z
1+
#720
0+
#730
b1 "
b1 :
b1 O
b11 N
b10 !
b10 7
b10 L
b100101 2
1+
#740
0+
#750
1;
b1 "
b1 :
b1 O
b100 N
b1 P
b11 !
b11 7
b11 L
b10 -
b0 e
b110010 d
b11 c
b100110 2
1+
#760
0+
#770
1>
b1 "
b1 :
b1 O
0;
b0 N
b100 !
b100 7
b100 L
b11 -
b100 c
b1 1
b100111 2
b0 e
1+
#780
0+
#790
1T
19
b0 "
b0 :
b0 O
0>
b0 !
b0 7
b0 L
16
b100 -
b101000 2
b1 e
1+
#800
0+
#810
0T
1M
b0 P
b0 #
b0 4
b0 <
b0 @
b0 F
b0 Y
b0 -
09
b0 .
b0 5
b0 C
b0 Z
b0 e
b101001 2
b0 c
b0 0
1+
#820
0+
#830
b101010 2
1+
#840
0+
#850
b101011 2
1+
#860
0+
#870
b101100 2
1+
#880
0+
#890
b101101 2
1+
#900
0+
#910
b101110 2
1+
#920
0+
#930
b101111 2
1+
#940
0+
#950
b110000 2
1+
#960
0+
#970
b110001 2
1+
#980
0+
#990
b110010 2
1+
#1000
0+
#1010
b11 a
b110011 2
1+
#1020
0+
#1030
b110100 2
1+
#1040
0+
#1050
b1 N
1S
b11 ,
b11 3
b11 B
b11 R
b110101 2
1+
#1060
0+
#1070
0S
b1 !
b1 7
b1 L
b1010 #
b1010 4
b1010 <
b1010 @
b1010 F
b1010 Y
b11 X
b110110 2
1+
#1080
0+
#1090
0M
b1 -
b0 ,
b0 3
b0 B
b0 R
b110111 2
1+
#1100
0+
#1110
b0 X
b111000 2
1+
#1120
0+
#1130
b111001 2
1+
#1140
0+
#1150
b111010 2
1+
#1160
0+
#1170
b111011 2
1+
#1180
0+
#1190
b111100 2
1+
#1200
0+
#1210
b111101 2
1+
#1220
0+
#1230
b111110 2
1+
#1240
0+
#1250
1S
b11 ,
b11 3
b11 B
b11 R
b111111 2
1+
#1260
0+
#1270
0S
b10100 #
b10100 4
b10100 <
b10100 @
b10100 F
b10100 Y
b11 X
b1000000 2
1+
#1280
0+
#1290
b0 ,
b0 3
b0 B
b0 R
b1000001 2
1+
#1300
0+
#1310
b0 X
b1000010 2
1+
#1320
0+
#1330
b1000011 2
1+
#1340
0+
#1350
b1000100 2
1+
#1360
0+
#1370
b1000101 2
1+
#1380
0+
#1390
b1000110 2
1+
#1400
0+
#1410
b1000111 2
b10 a
1+
#1420
0+
#1430
b1001000 2
1+
#1440
0+
#1450
1S
b10 ,
b10 3
b10 B
b10 R
b1001001 2
1+
#1460
0+
#1470
0S
b11001 #
b11001 4
b11001 <
b11001 @
b11001 F
b11001 Y
b10 X
b1001010 2
1+
#1480
0+
#1490
b0 ,
b0 3
b0 B
b0 R
b1001011 2
1+
#1500
0+
#1510
b0 X
b1001100 2
1+
#1520
0+
#1530
b1001101 2
1+
#1540
0+
#1550
b1001110 2
1+
#1560
0+
#1570
b1001111 2
1+
#1580
0+
#1590
b1010000 2
1+
#1600
0+
#1610
b1010001 2
b10 b
1+
#1620
0+
#1630
b10100 8
b10100 ?
b10100 E
b10100 ^
b10 N
b1010010 2
b10 .
b10 5
b10 C
b10 Z
1+
#1640
0+
#1650
b10 "
b10 :
b10 O
b11 N
b10 !
b10 7
b10 L
b1010011 2
1+
#1660
0+
#1670
1;
b10 "
b10 :
b10 O
b100 N
b10 P
b11 !
b11 7
b11 L
b10 -
b11 c
b1010100 2
1+
#1680
0+
#1690
1>
b10 "
b10 :
b10 O
0;
b0 N
b100 !
b100 7
b100 L
b11 -
b100 c
b10 1
b1010101 2
b0 e
1+
#1700
0+
#1710
1T
19
b0 "
b0 :
b0 O
0>
b0 !
b0 7
b0 L
b101 $
b101 =
b101 A
b100 -
b1010110 2
b1 e
1+
#1720
0+
#1730
0T
1M
b0 P
b0 #
b0 4
b0 <
b0 @
b0 F
b0 Y
b0 -
09
b0 .
b0 5
b0 C
b0 Z
b0 e
b1010111 2
b0 c
b101 0
1+
#1740
0+
#1750
b1011000 2
1+
#1760
0+
#1770
b1011001 2
1+
#1780
0+
#1790
b1011010 2
1+
#1800
0+
#1810
b1011011 2
1+
#1820
0+
#1830
b1011100 2
1+
#1840
0+
#1850
b1011101 2
1+
#1860
0+
#1870
b1011110 2
1+
#1880
0+
#1890
b1011111 2
1+
#1900
0+
#1910
b1100000 2
1+
#1920
0+
#1930
b11 a
b1100001 2
1+
#1940
0+
#1950
b1100010 2
1+
#1960
0+
#1970
b1 N
1S
b11 ,
b11 3
b11 B
b11 R
b1100011 2
1+
#1980
0+
#1990
0S
b1 !
b1 7
b1 L
b1010 #
b1010 4
b1010 <
b1010 @
b1010 F
b1010 Y
b11 X
b1100100 2
1+
#2000
0+
#2010
0M
b1 -
b0 ,
b0 3
b0 B
b0 R
b1100101 2
1+
#2020
0+
#2030
b0 X
b1100110 2
1+
#2040
0+
#2050
b1100111 2
1+
#2060
0+
#2070
b1101000 2
1+
#2080
0+
#2090
b1101001 2
1+
#2100
0+
#2110
1S
b11 ,
b11 3
b11 B
b11 R
b1101010 2
1+
#2120
0+
#2130
0S
b10100 #
b10100 4
b10100 <
b10100 @
b10100 F
b10100 Y
b11 X
b1101011 2
1+
#2140
0+
#2150
b0 ,
b0 3
b0 B
b0 R
b1101100 2
1+
#2160
0+
#2170
b0 X
b1101101 2
1+
#2180
0+
#2190
b1101110 2
1+
#2200
0+
#2210
b10 a
b1101111 2
1+
#2220
0+
#2230
b1110000 2
1+
#2240
0+
#2250
1S
b10 ,
b10 3
b10 B
b10 R
b1110001 2
1+
#2260
0+
#2270
0S
b11001 #
b11001 4
b11001 <
b11001 @
b11001 F
b11001 Y
b10 X
b1110010 2
1+
#2280
0+
#2290
b0 ,
b0 3
b0 B
b0 R
b1110011 2
1+
#2300
0+
#2310
b0 X
b1110100 2
1+
#2320
0+
#2330
b1110101 2
1+
#2340
0+
#2350
b1110110 2
1+
#2360
0+
#2370
b1110111 2
1+
#2380
0+
#2390
b1111000 2
1+
#2400
0+
#2410
b1111001 2
b11 b
1+
#2420
0+
#2430
b11001 8
b11001 ?
b11001 E
b11001 ^
b10 N
b1111010 2
b11 .
b11 5
b11 C
b11 Z
1+
#2440
0+
#2450
b11 "
b11 :
b11 O
b11 N
b10 !
b10 7
b10 L
b1111011 2
1+
#2460
0+
#2470
1;
b11 "
b11 :
b11 O
b100 N
b11 P
b11 !
b11 7
b11 L
b10 -
b11 c
b1111100 2
1+
#2480
0+
#2490
1>
b11 "
b11 :
b11 O
0;
b0 N
b100 !
b100 7
b100 L
b11 -
b100 c
b11 1
b1111101 2
b0 e
1+
#2500
0+
#2510
1T
19
b0 "
b0 :
b0 O
0>
b0 !
b0 7
b0 L
b0 $
b0 =
b0 A
b100 -
b1111110 2
b1 e
1+
#2520
0+
#2530
0T
09
1M
b0 P
b0 #
b0 4
b0 <
b0 @
b0 F
b0 Y
b0 -
b0 e
b1111111 2
b0 c
b0 0
1+
#2540
0+
#2550
b10000000 2
1+
#2560
0+
#2570
b10000001 2
1+
#2580
0+
#2590
b10000010 2
1+
#2600
0+
#2610
b10000011 2
1+
#2620
0+
#2630
b10000100 2
1+
#2640
0+
#2650
b10000101 2
1+
#2660
0+
#2670
b10000110 2
1+
#2680
0+
#2690
b10000111 2
1+
#2700
0+
#2710
b10001000 2
1+
#2720
0+
#2730
b11 a
b10001001 2
1+
#2740
0+
#2750
b10001010 2
1+
#2760
0+
#2770
b1 N
1S
b11 ,
b11 3
b11 B
b11 R
b10001011 2
1+
#2780
0+
#2790
b10 N
0S
b1 !
b1 7
b1 L
b1010 #
b1010 4
b1010 <
b1010 @
b1010 F
b1010 Y
b11 X
b10001100 2
1+
#2800
0+
#2810
0M
b10 !
b10 7
b10 L
b1 -
b0 ,
b0 3
b0 B
b0 R
b10001101 2
1+
#2820
0+
#2830
b10 -
b0 X
b10001110 2
1+
#2840
0+
#2850
b10001111 2
1+
#2860
0+
#2870
b10010000 2
1+
#2880
0+
#2890
b10010001 2
1+
#2900
0+
#2910
b10010010 2
1+
#2920
0+
#2930
b10010011 2
1+
#2940
0+
#2950
b10010100 2
1+
#2960
0+
#2970
b10010101 2
b10 a
1+
#2980
0+
#2990
b10010110 2
1+
#3000
0+
#3010
b1 N
1S
b10 ,
b10 3
b10 B
b10 R
b10010111 2
1+
#3020
0+
#3030
b10 N
0S
b1 !
b1 7
b1 L
b1111 #
b1111 4
b1111 <
b1111 @
b1111 F
b1111 Y
b10 X
b10011000 2
1+
#3040
0+
#3050
b10 !
b10 7
b10 L
b1 -
b0 ,
b0 3
b0 B
b0 R
b10011001 2
1+
#3060
0+
#3070
b10 -
b0 X
b10011010 2
1+
#3080
0+
#3090
b10011011 2
1+
#3100
0+
#3110
b10011100 2
1+
#3120
0+
#3130
b10011101 2
1+
#3140
0+
#3150
b10011110 2
1+
#3160
0+
#3170
b10011111 2
1+
#3180
0+
#3190
b10100000 2
1+
#3200
0+
#3210
1Q
b100 N
b10100001 2
1*
1+
#3220
0+
#3230
1>
b0 N
b100 !
b100 7
b100 L
b10100010 2
1+
#3240
0+
#3250
1T
19
0>
06
b1111 $
b1111 =
b1111 A
b0 !
b0 7
b0 L
b100 -
b10100011 2
1+
#3260
0+
#3270
0T
09
1M
0Q
b0 -
b0 #
b0 4
b0 <
b0 @
b0 F
b0 Y
0*
b10100100 2
1+
#3280
0+
#3290
b10100101 2
1+
#3300
0+
#3310
b10100110 2
1+
#3320
0+
#3330
b10100111 2
1+
#3340
0+
#3350
b10101000 2
1+
#3360
0+
#3370
b10101001 2
b10100 d
b1111 0
1+
#3380
0+
#3390
b10101010 2
1+
#3400
0+
#3410
b10101011 2
1+
#3420
0+
#3430
b10101100 2
1+
#3440
0+
#3450
b10101101 2
1+
#3460
0+
#3470
b10101110 2
1+
#3480
0+
#3490
b10101111 2
1+
#3500
0+
#3510
b10110000 2
1+
#3520
0+
#3530
b10110001 2
1+
#3540
0+
#3550
b10110010 2
1+
#3560
0+
#3570
b10110011 2
1+
#3580
0+
#3590
b10110100 2
1+
#3600
0+
#3610
b10110101 2
1+
#3620
0+
#3630
b10110110 2
1+
#3640
0+
#3650
b10110111 2
1+
#3660
0+
#3670
b10111000 2
1+
#3680
0+
#3690
b10111001 2
1+
#3700
0+
#3710
b10111010 2
1+
#3720
0+
#3730
b10111011 2
1+
#3740
0+
#3750
b10111100 2
1+
#3760
0+
#3770
b10111101 2
1+
#3780
0+
#3790
b10111110 2
1+
#3800
0+
#3810
b10111111 2
1+
#3820
0+
#3830
b11000000 2
1+
#3840
0+
#3850
b11000001 2
1+
#3860
0+
#3870
b11000010 2
1+
#3880
0+
#3890
b11000011 2
1+
#3900
0+
#3910
b11000100 2
1+
#3920
0+
#3930
b11000101 2
1+
#3940
0+
#3950
b11000110 2
1+
#3960
0+
#3970
b11 a
b11111 0
b0 1
b11000111 2
1+
#3980
0+
#3990
b11001000 2
1+
#4000
0+
#4010
b1 N
1S
b11 ,
b11 3
b11 B
b11 R
b11001001 2
1+
#4020
0+
#4030
b10 N
0S
b1 !
b1 7
b1 L
b1010 #
b1010 4
b1010 <
b1010 @
b1010 F
b1010 Y
b11 X
b11001010 2
1+
#4040
0+
#4050
0M
b10 !
b10 7
b10 L
b1 -
b0 ,
b0 3
b0 B
b0 R
b11001011 2
1+
#4060
0+
#4070
b10 -
b0 X
b11001100 2
1+
#4080
0+
#4090
b11001101 2
1+
#4100
0+
#4110
b11001110 2
1+
#4120
0+
#4130
b11001111 2
1+
#4140
0+
#4150
b11010000 2
1+
#4160
0+
#4170
b11010001 2
1+
#4180
0+
#4190
b11010010 2
1+
#4200
0+
#4210
b11010011 2
1+
#4220
0+
#4230
b11010100 2
1+
#4240
0+
#4250
b11010101 2
1+
#4260
0+
#4270
b11010110 2
1+
#4280
0+
#4290
b11010111 2
1+
#4300
0+
#4310
b11011000 2
1+
#4320
0+
#4330
b11011001 2
1+
#4340
0+
#4350
b11011010 2
1+
#4360
0+
#4370
b11011011 2
1+
#4380
0+
#4390
b11011100 2
1+
#4400
0+
#4410
b1 N
1S
b11 ,
b11 3
b11 B
b11 R
b11011101 2
1+
#4420
0+
#4430
b10 N
0S
b1 !
b1 7
b1 L
b10100 #
b10100 4
b10100 <
b10100 @
b10100 F
b10100 Y
b11 X
b11011110 2
1+
#4440
0+
#4450
b10 !
b10 7
b10 L
b1 -
b0 ,
b0 3
b0 B
b0 R
b11011111 2
1+
#4460
0+
#4470
b10 -
b0 X
b11100000 2
1+
#4480
0+
#4490
b11100001 2
1+
#4500
0+
#4510
b11100010 2
1+
#4520
0+
#4530
b11100011 2
1+
#4540
0+
#4550
b11100100 2
1+
#4560
0+
#4570
b11100101 2
1+
#4580
0+
#4590
b11100110 2
1+
#4600
0+
#4610
b10 a
b1 _
b11100111 2
1+
#4620
0+
#4630
b11101000 2
1+
#4640
0+
#4650
b1 N
1S
b10 ,
b10 3
b10 B
b10 R
b11101001 2
1+
#4660
0+
#4670
b10 N
0S
b1 !
b1 7
b1 L
b11001 #
b11001 4
b11001 <
b11001 @
b11001 F
b11001 Y
b10 X
b11101010 2
1+
#4680
0+
#4690
b11 "
b11 :
b11 O
b11 N
b10 !
b10 7
b10 L
b1 -
b0 ,
b0 3
b0 B
b0 R
b11101011 2
1+
#4700
0+
#4710
1;
b11 "
b11 :
b11 O
b100 N
b11 P
b11 !
b11 7
b11 L
b10 -
b0 X
b11101100 2
1+
#4720
0+
#4730
1>
b11 "
b11 :
b11 O
0;
b0 N
b100 !
b100 7
b100 L
b11 -
b11101101 2
1+
#4740
0+
#4750
1T
19
b0 "
b0 :
b0 O
0>
b0 !
b0 7
b0 L
16
b0 $
b0 =
b0 A
b100 -
b11101110 2
1+
#4760
0+
#4770
0T
09
1M
b0 P
b0 #
b0 4
b0 <
b0 @
b0 F
b0 Y
b0 -
b11101111 2
1+
#4780
0+
#4790
b11110 d
b0 0
b11 1
b11110000 2
1+
#4800
0+
#4810
b11110001 2
1+
#4820
0+
#4830
b11110010 2
1+
#4840
0+
#4850
b11110011 2
1+
#4860
0+
#4870
b11110100 2
1+
#4880
0+
#4890
b11110101 2
1+
#4900
0+
#4910
b11110110 2
1+
#4920
0+
#4930
b11110111 2
1+
#4940
0+
#4950
b11111000 2
1+
#4960
0+
#4970
b11111001 2
1+
#4980
0+
#4990
b11111010 2
1+
#5000
0+
#5010
b11111011 2
1+
#5020
0+
#5030
b11111100 2
1+
#5040
0+
#5050
b11111101 2
1+
#5060
0+
#5070
b11111110 2
1+
#5080
0+
#5090
b11111111 2
1+
#5100
0+
#5110
b100000000 2
1+
#5120
0+
#5130
b100000001 2
1+
#5140
0+
#5150
b100000010 2
1+
#5160
0+
#5170
b100000011 2
1+
#5180
0+
#5190
b101 `
b100000100 2
1+
